project/m3/cosim.vcd
$date
	Sun May 24 14:48:45 2026
$end
$version
	ModelSim Version 10.5b
$end
$timescale
	1ps
$end

$scope module tb_top $end
$var parameter 32 ! N $end
$var reg 1 " clk $end
$var reg 1 # rst $end
$var reg 1 $ s_tvalid $end
$var reg 1 % s_tready $end
$var reg 24 & s_tdata [23:0] $end
$var reg 1 ' s_tlast $end
$var reg 1 ( m_tvalid $end
$var reg 1 ) m_tready $end
$var reg 32 * m_tdata [31:0] $end
$var integer 32 + pass_count $end
$var integer 32 , fail_count $end
$var integer 32 - i $end

$scope task axi_write $end
$var reg 8 . q [7:0] $end
$var reg 8 / k [7:0] $end
$var reg 8 0 v [7:0] $end
$var reg 1 1 last $end
$upscope $end

$scope module dut $end
$var parameter 32 2 DATA_WIDTH $end
$var parameter 32 3 ACCUM_WIDTH $end
$var parameter 32 4 HEAD_DIM $end
$var parameter 32 5 SCALE_SHIFT $end
$var wire 1 6 clk $end
$var wire 1 7 rst $end
$var wire 1 8 s_tvalid $end
$var reg 1 9 s_tready $end
$var wire 1 : s_tdata [23] $end
$var wire 1 ; s_tdata [22] $end
$var wire 1 < s_tdata [21] $end
$var wire 1 = s_tdata [20] $end
$var wire 1 > s_tdata [19] $end
$var wire 1 ? s_tdata [18] $end
$var wire 1 @ s_tdata [17] $end
$var wire 1 A s_tdata [16] $end
$var wire 1 B s_tdata [15] $end
$var wire 1 C s_tdata [14] $end
$var wire 1 D s_tdata [13] $end
$var wire 1 E s_tdata [12] $end
$var wire 1 F s_tdata [11] $end
$var wire 1 G s_tdata [10] $end
$var wire 1 H s_tdata [9] $end
$var wire 1 I s_tdata [8] $end
$var wire 1 J s_tdata [7] $end
$var wire 1 K s_tdata [6] $end
$var wire 1 L s_tdata [5] $end
$var wire 1 M s_tdata [4] $end
$var wire 1 N s_tdata [3] $end
$var wire 1 O s_tdata [2] $end
$var wire 1 P s_tdata [1] $end
$var wire 1 Q s_tdata [0] $end
$var wire 1 R s_tlast $end
$var reg 1 S m_tvalid $end
$var wire 1 T m_tready $end
$var reg 32 U m_tdata [31:0] $end

$scope module u_interface $end
$var parameter 32 V DATA_WIDTH $end
$var parameter 32 W ACCUM_WIDTH $end
$var wire 1 6 clk $end
$var wire 1 7 rst $end
$var wire 1 8 s_tvalid $end
$var reg 1 X s_tready $end
$var wire 1 : s_tdata [23] $end
$var wire 1 ; s_tdata [22] $end
$var wire 1 < s_tdata [21] $end
$var wire 1 = s_tdata [20] $end
$var wire 1 > s_tdata [19] $end
$var wire 1 ? s_tdata [18] $end
$var wire 1 @ s_tdata [17] $end
$var wire 1 A s_tdata [16] $end
$var wire 1 B s_tdata [15] $end
$var wire 1 C s_tdata [14] $end
$var wire 1 D s_tdata [13] $end
$var wire 1 E s_tdata [12] $end
$var wire 1 F s_tdata [11] $end
$var wire 1 G s_tdata [10] $end
$var wire 1 H s_tdata [9] $end
$var wire 1 I s_tdata [8] $end
$var wire 1 J s_tdata [7] $end
$var wire 1 K s_tdata [6] $end
$var wire 1 L s_tdata [5] $end
$var wire 1 M s_tdata [4] $end
$var wire 1 N s_tdata [3] $end
$var wire 1 O s_tdata [2] $end
$var wire 1 P s_tdata [1] $end
$var wire 1 Q s_tdata [0] $end
$var wire 1 R s_tlast $end
$var reg 1 Y m_tvalid $end
$var wire 1 T m_tready $end
$var reg 32 Z m_tdata [31:0] $end
$var reg 8 [ q_in [7:0] $end
$var reg 8 \ k_in [7:0] $end
$var reg 8 ] v_in [7:0] $end
$var reg 1 ^ valid_in $end
$var reg 1 _ seq_last $end
$var reg 32 ` core_attn_out [31:0] $end
$var reg 1 a core_valid_out $end
$var reg 32 b result_reg [31:0] $end
$var reg 1 c result_valid $end

$scope module u_compute_core $end
$var parameter 32 d DATA_WIDTH $end
$var parameter 32 e ACCUM_WIDTH $end
$var parameter 32 f HEAD_DIM $end
$var parameter 32 g SCALE_SHIFT $end
$var wire 1 6 clk $end
$var wire 1 7 rst $end
$var wire 1 h q_in [7] $end
$var wire 1 i q_in [6] $end
$var wire 1 j q_in [5] $end
$var wire 1 k q_in [4] $end
$var wire 1 l q_in [3] $end
$var wire 1 m q_in [2] $end
$var wire 1 n q_in [1] $end
$var wire 1 o q_in [0] $end
$var wire 1 p k_in [7] $end
$var wire 1 q k_in [6] $end
$var wire 1 r k_in [5] $end
$var wire 1 s k_in [4] $end
$var wire 1 t k_in [3] $end
$var wire 1 u k_in [2] $end
$var wire 1 v k_in [1] $end
$var wire 1 w k_in [0] $end
$var wire 1 x v_in [7] $end
$var wire 1 y v_in [6] $end
$var wire 1 z v_in [5] $end
$var wire 1 { v_in [4] $end
$var wire 1 | v_in [3] $end
$var wire 1 } v_in [2] $end
$var wire 1 ~ v_in [1] $end
$var wire 1 !! v_in [0] $end
$var wire 1 "! valid_in $end
$var wire 1 #! seq_last $end
$var reg 32 $! attn_out [31:0] $end
$var reg 1 %! valid_out $end
$var reg 32 &! mac_accum [31:0] $end
$var reg 1 '! mac_last $end
$var reg 32 (! scaled_data [31:0] $end
$var reg 1 )! scaled_valid $end
$var reg 32 *! relu_data [31:0] $end
$var reg 1 +! relu_valid $end

$scope module u_mac $end
$var parameter 32 ,! DATA_WIDTH $end
$var parameter 32 -! ACCUM_WIDTH $end
$var wire 1 6 clk $end
$var wire 1 7 rst $end
$var wire 1 h a_in [7] $end
$var wire 1 i a_in [6] $end
$var wire 1 j a_in [5] $end
$var wire 1 k a_in [4] $end
$var wire 1 l a_in [3] $end
$var wire 1 m a_in [2] $end
$var wire 1 n a_in [1] $end
$var wire 1 o a_in [0] $end
$var wire 1 p b_in [7] $end
$var wire 1 q b_in [6] $end
$var wire 1 r b_in [5] $end
$var wire 1 s b_in [4] $end
$var wire 1 t b_in [3] $end
$var wire 1 u b_in [2] $end
$var wire 1 v b_in [1] $end
$var wire 1 w b_in [0] $end
$var wire 1 "! valid_in $end
$var wire 1 #! seq_last $end
$var reg 32 .! accum_out [31:0] $end
$var reg 1 /! last_out $end
$var reg 16 0! product_reg [15:0] $end
$var reg 32 1! accum_reg [31:0] $end
$var reg 1 2! last_reg $end
$upscope $end

$scope module u_scale $end
$var parameter 32 3! DATA_WIDTH $end
$var parameter 32 4! SCALE_SHIFT $end
$var wire 1 6 clk $end
$var wire 1 7 rst $end
$var wire 1 5! data_in [31] $end
$var wire 1 6! data_in [30] $end
$var wire 1 7! data_in [29] $end
$var wire 1 8! data_in [28] $end
$var wire 1 9! data_in [27] $end
$var wire 1 :! data_in [26] $end
$var wire 1 ;! data_in [25] $end
$var wire 1 <! data_in [24] $end
$var wire 1 =! data_in [23] $end
$var wire 1 >! data_in [22] $end
$var wire 1 ?! data_in [21] $end
$var wire 1 @! data_in [20] $end
$var wire 1 A! data_in [19] $end
$var wire 1 B! data_in [18] $end
$var wire 1 C! data_in [17] $end
$var wire 1 D! data_in [16] $end
$var wire 1 E! data_in [15] $end
$var wire 1 F! data_in [14] $end
$var wire 1 G! data_in [13] $end
$var wire 1 H! data_in [12] $end
$var wire 1 I! data_in [11] $end
$var wire 1 J! data_in [10] $end
$var wire 1 K! data_in [9] $end
$var wire 1 L! data_in [8] $end
$var wire 1 M! data_in [7] $end
$var wire 1 N! data_in [6] $end
$var wire 1 O! data_in [5] $end
$var wire 1 P! data_in [4] $end
$var wire 1 Q! data_in [3] $end
$var wire 1 R! data_in [2] $end
$var wire 1 S! data_in [1] $end
$var wire 1 T! data_in [0] $end
$var wire 1 U! valid_in $end
$var reg 32 V! data_out [31:0] $end
$var reg 1 W! valid_out $end
$upscope $end

$scope module u_relu $end
$var parameter 32 X! DATA_WIDTH $end
$var wire 1 6 clk $end
$var wire 1 7 rst $end
$var wire 1 Y! data_in [31] $end
$var wire 1 Z! data_in [30] $end
$var wire 1 [! data_in [29] $end
$var wire 1 \! data_in [28] $end
$var wire 1 ]! data_in [27] $end
$var wire 1 ^! data_in [26] $end
$var wire 1 _! data_in [25] $end
$var wire 1 `! data_in [24] $end
$var wire 1 a! data_in [23] $end
$var wire 1 b! data_in [22] $end
$var wire 1 c! data_in [21] $end
$var wire 1 d! data_in [20] $end
$var wire 1 e! data_in [19] $end
$var wire 1 f! data_in [18] $end
$var wire 1 g! data_in [17] $end
$var wire 1 h! data_in [16] $end
$var wire 1 i! data_in [15] $end
$var wire 1 j! data_in [14] $end
$var wire 1 k! data_in [13] $end
$var wire 1 l! data_in [12] $end
$var wire 1 m! data_in [11] $end
$var wire 1 n! data_in [10] $end
$var wire 1 o! data_in [9] $end
$var wire 1 p! data_in [8] $end
$var wire 1 q! data_in [7] $end
$var wire 1 r! data_in [6] $end
$var wire 1 s! data_in [5] $end
$var wire 1 t! data_in [4] $end
$var wire 1 u! data_in [3] $end
$var wire 1 v! data_in [2] $end
$var wire 1 w! data_in [1] $end
$var wire 1 x! data_in [0] $end
$var wire 1 y! valid_in $end
$var reg 32 z! data_out [31:0] $end
$var reg 1 {! valid_out $end
$upscope $end

$scope module u_av $end
$var parameter 32 |! DATA_WIDTH $end
$var parameter 32 }! ACCUM_WIDTH $end
$var parameter 32 ~! SCALE_SHIFT $end
$var wire 1 6 clk $end
$var wire 1 7 rst $end
$var wire 1 !" weight_in [31] $end
$var wire 1 "" weight_in [30] $end
$var wire 1 #" weight_in [29] $end
$var wire 1 $" weight_in [28] $end
$var wire 1 %" weight_in [27] $end
$var wire 1 &" weight_in [26] $end
$var wire 1 '" weight_in [25] $end
$var wire 1 (" weight_in [24] $end
$var wire 1 )" weight_in [23] $end
$var wire 1 *" weight_in [22] $end
$var wire 1 +" weight_in [21] $end
$var wire 1 ," weight_in [20] $end
$var wire 1 -" weight_in [19] $end
$var wire 1 ." weight_in [18] $end
$var wire 1 /" weight_in [17] $end
$var wire 1 0" weight_in [16] $end
$var wire 1 1" weight_in [15] $end
$var wire 1 2" weight_in [14] $end
$var wire 1 3" weight_in [13] $end
$var wire 1 4" weight_in [12] $end
$var wire 1 5" weight_in [11] $end
$var wire 1 6" weight_in [10] $end
$var wire 1 7" weight_in [9] $end
$var wire 1 8" weight_in [8] $end
$var wire 1 9" weight_in [7] $end
$var wire 1 :" weight_in [6] $end
$var wire 1 ;" weight_in [5] $end
$var wire 1 <" weight_in [4] $end
$var wire 1 =" weight_in [3] $end
$var wire 1 >" weight_in [2] $end
$var wire 1 ?" weight_in [1] $end
$var wire 1 @" weight_in [0] $end
$var wire 1 x v_in [7] $end
$var wire 1 y v_in [6] $end
$var wire 1 z v_in [5] $end
$var wire 1 { v_in [4] $end
$var wire 1 | v_in [3] $end
$var wire 1 } v_in [2] $end
$var wire 1 ~ v_in [1] $end
$var wire 1 !! v_in [0] $end
$var wire 1 A" valid_in $end
$var reg 32 B" result_out [31:0] $end
$var reg 1 C" valid_out $end
$var reg 32 D" v_extended [31:0] $end
$var reg 32 E" product_reg [31:0] $end
$var reg 1 F" valid_a $end
$var reg 32 G" av_accum [31:0] $end
$upscope $end
$upscope $end
$upscope $end
$upscope $end
$upscope $end
$enddefinitions $end
#0
$dumpvars
0"
1#
0$
0%
b0 &
0'
x(
0)
bx *
09
xS
bx U
0X
xY
bx Z
b0 [
b0 \
b0 ]
0^
0_
bx `
xa
bx $!
x%!
bx &!
x'!
bx (!
x)!
bx *!
x+!
bx .!
x/!
bx 0!
bx 1!
x2!
bx V!
xW!
bx z!
x{!
bx B"
xC"
bx D"
bx E"
xF"
bx G"
bx b
xc
bx .
bx /
bx 0
x1
b100 !
b1000 2
b100000 3
b100 4
b11 5
b1000 V
b100000 W
b1000 d
b100000 e
b1000000 f
b11 g
b1000 ,!
b100000 -!
b100000 3!
b11 4!
b100000 X!
b1000 |!
b100000 }!
b11 ~!
b0 +
b0 ,
bx -
06
17
08
0Q
0P
0O
0N
0M
0L
0K
0J
0I
0H
0G
0F
0E
0D
0C
0B
0A
0@
0?
0>
0=
0<
0;
0:
0R
0T
0o
0n
0m
0l
0k
0j
0i
0h
0w
0v
0u
0t
0s
0r
0q
0p
0!!
0~
0}
0|
0{
0z
0y
0x
0"!
0#!
xT!
xS!
xR!
xQ!
xP!
xO!
xN!
xM!
xL!
xK!
xJ!
xI!
xH!
xG!
xF!
xE!
xD!
xC!
xB!
xA!
x@!
x?!
x>!
x=!
x<!
x;!
x:!
x9!
x8!
x7!
x6!
x5!
xU!
xx!
xw!
xv!
xu!
xt!
xs!
xr!
xq!
xp!
xo!
xn!
xm!
xl!
xk!
xj!
xi!
xh!
xg!
xf!
xe!
xd!
xc!
xb!
xa!
x`!
x_!
x^!
x]!
x\!
x[!
xZ!
xY!
xy!
x@"
x?"
x>"
x="
x<"
x;"
x:"
x9"
x8"
x7"
x6"
x5"
x4"
x3"
x2"
x1"
x0"
x/"
x."
x-"
x,"
x+"
x*"
x)"
x("
x'"
x&"
x%"
x$"
x#"
x""
x!"
xA"
$end
#5000
1"
16
b0 0!
b0 1!
02!
b0 V!
0W!
b0 z!
0{!
b0 D"
b0 E"
0F"
b0 G"
0C"
b0 b
0c
0Y
b0 Z
0%!
b0 B"
0+!
b0 *!
0)!
b0 (!
0/!
b0 .!
b0 &!
0'!
b0 $!
0a
b0 U
0S
0A"
0y!
0x!
0w!
0v!
0u!
0t!
0s!
0r!
0q!
0p!
0o!
0n!
0m!
0l!
0k!
0j!
0i!
0h!
0g!
0f!
0e!
0d!
0c!
0b!
0a!
0`!
0_!
0^!
0]!
0\!
0[!
0Z!
0Y!
0@"
0?"
0>"
0="
0<"
0;"
0:"
09"
08"
07"
06"
05"
04"
03"
02"
01"
00"
0/"
0."
0-"
0,"
0+"
0*"
0)"
0("
0'"
0&"
0%"
0$"
0#"
0""
0!"
0(
b0 *
b0 `
0T!
0S!
0R!
0Q!
0P!
0O!
0N!
0M!
0L!
0K!
0J!
0I!
0H!
0G!
0F!
0E!
0D!
0C!
0B!
0A!
0@!
0?!
0>!
0=!
0<!
0;!
0:!
09!
08!
07!
06!
05!
0U!
#10000
0"
06
#15000
1"
16
#16000
0#
07
1X
19
1%
#20000
0"
06
#25000
1"
16
#26000
b1 +
b0 -
b11 .
b100 /
b10 0
01
b110000010000000010 &
1$
1P
1G
1A
1@
18
1^
b11 [
b100 \
b10 ]
1"!
1~
1u
1o
1n
#30000
0"
06
#35000
1"
16
b1100 0!
#36000
0$
b0 &
b1 -
b11111110 .
b111 /
b11 0
b111111100000011100000011 &
1$
1Q
1I
1H
0A
1?
1>
1=
1<
1;
1:
b11111110 [
b111 \
b11 ]
1!!
1w
1v
0o
1m
1l
1k
1j
1i
1h
#40000
0"
06
#45000
1"
16
b1111111111110010 0!
b1100 1!
b1100 .!
b1100 &!
1R!
1Q!
#46000
0$
b0 &
b10 -
b101 .
b10 /
b1 0
b1010000001000000001 &
1$
0P
0I
0G
1A
0@
0>
0=
0<
0;
0:
b101 [
b10 \
b1 ]
0~
0w
0u
1o
0n
0l
0k
0j
0i
0h
#50000
0"
06
#55000
1"
16
b1010 0!
b11111111111111111111111111111110 1!
b11111111111111111111111111111110 .!
b11111111111111111111111111111110 &!
1S!
1P!
1O!
1N!
1M!
1L!
1K!
1J!
1I!
1H!
1G!
1F!
1E!
1D!
1C!
1B!
1A!
1@!
1?!
1>!
1=!
1<!
1;!
1:!
19!
18!
17!
16!
15!
#56000
0$
b0 &
b11 -
b1 .
b110 /
b11111111 0
11
b10000011011111111 &
1$
1'
1P
1O
1N
1M
1L
1K
1J
1G
0?
1R
1_
b1 [
b110 \
b11111111 ]
1#!
1~
1}
1|
1{
1z
1y
1x
1u
0m
#60000
0"
06
#65000
1"
16
b110 0!
b1000 1!
12!
1/!
b1000 .!
b1000 &!
1'!
0S!
0R!
0P!
0O!
0N!
0M!
0L!
0K!
0J!
0I!
0H!
0G!
0F!
0E!
0D!
0C!
0B!
0A!
0@!
0?!
0>!
0=!
0<!
0;!
0:!
09!
08!
07!
06!
05!
1U!
#66000
0$
0'
b0 &
b100 -
b10 +
08
0R
0Q
0P
0O
0N
0M
0L
0K
0J
0H
0G
0A
b0 [
b0 \
b0 ]
0_
0^
0!!
0~
0}
0|
0{
0z
0y
0x
0v
0u
0o
0#!
0"!
#70000
0"
06
#75000
1"
16
02!
b1 V!
1W!
1)!
b1 (!
0/!
0'!
1y!
1x!
0U!
#80000
0"
06
#85000
1"
16
0W!
b1 z!
1{!
1+!
b1 *!
0)!
1A"
1@"
0y!
#90000
0"
06
#95000
1"
16
0{!
1F"
0+!
0A"
#100000
0"
06
#105000
1"
16
0F"
1C"
1%!
1a
#110000
0"
06
#115000
1"
16
0C"
1c
1Y
0%!
0a
1S
1(
#120000
0"
06
#125000
1"
16
#130000
0"
06
#135000
1"
16
#140000
0"
06
#145000
1"
16
#150000
0"
06
#155000
1"
16
#160000
0"
06
#165000
1"
16
#166000
1)
1T
#170000
0"
06
#175000
1"
16
0c
0Y
0S
0(
#180000
0"
06
#185000
1"
16
#190000
0"
06
#195000
1"
16
#200000
0"
06
#205000
1"
16
#210000
0"
06
#215000
1"
16
#216000
b11 +
0)
1#
0T
17
0X
09
0%
#220000
0"
06
#225000
1"
16
b0 0!
b0 1!
b0 V!
b0 z!
b0 *!
b0 (!
b0 .!
b0 &!
0x!
0@"
0Q!
#226000
0#
07
1X
19
1%
#230000
0"
06
#235000
1"
16
#240000
0"
06
#245000
1"
16
#246000
b11110110 .
b1010 /
b101 0
b111101100000101000000101 &
1$
1'
1Q
1O
1H
1F
1@
1?
1=
1<
1;
1:
18
1R
1_
1^
b11110110 [
b1010 \
b101 ]
1#!
1"!
1!!
1}
1v
1t
1n
1m
1k
1j
1i
1h
#250000
0"
06
#255000
1"
16
b1111111110011100 0!
12!
1/!
1'!
1U!
#256000
0$
0'
b0 &
08
0R
0Q
0O
0H
0F
0@
0?
0=
0<
0;
0:
b0 [
b0 \
b0 ]
0_
0^
0!!
0}
0v
0t
0n
0m
0k
0j
0i
0h
0#!
0"!
#260000
0"
06
#265000
1"
16
02!
1W!
1)!
0/!
0'!
1y!
0U!
#270000
0"
06
#275000
1"
16
0W!
1{!
1+!
0)!
1A"
0y!
#280000
0"
06
#285000
1"
16
0{!
1F"
0+!
0A"
#290000
0"
06
#295000
1"
16
0F"
1C"
1%!
1a
#300000
0"
06
#305000
1"
16
0C"
1c
1Y
0%!
0a
1S
1(
#310000
0"
06
#315000
1"
16
#320000
0"
06
#325000
1"
16
#330000
0"
06
#335000
1"
16
#340000
0"
06
#345000
1"
16
#350000
0"
06
#355000
1"
16
#356000
1)
1T
#360000
0"
06
#365000
1"
16
0c
0Y
0S
0(
#370000
0"
06
#375000
1"
16
#380000
0"
06
#385000
1"
16
#390000
0"
06
#395000
1"
16
#400000
0"
06
#405000
1"
16
#406000
b100 +
0)
1#
0T
17
0X
09
0%
#410000
0"
06
#415000
1"
16
b0 0!
#416000
b101 +
0#
